{
    "id": "com.modxvm.xvm.battle",
    "name": "XVM Battle",
    "description": "XVM Battle module",

    "version": "8.7.9.0015",
    "dependencies": ["com.modxvm.xvm"],

    "url": "https://modxvm.com/",
    "url_update": "https://modxvm.com/",

    "wot_version_min": "1.12.1.2",
    "wot_version_exactmatch": false,

    "features": ["actionscript", "python"]
}
